[
  {
    "id": 1,
    "title": "title",
    "price": 100,
    "address": "address",
    "status": true,
    "createdDate": {
      "dayOfMonth": 5,
      "dayOfWeek": "THURSDAY",
      "dayOfYear": 309,
      "month": "NOVEMBER",
      "monthValue": 11,
      "year": 2015,
      "hour": 14,
      "minute": 29,
      "nano": 0,
      "second": 36,
      "chronology": {
        "id": "ISO",
        "calendarType": "iso8601"
      }
    },
    "photo": "https://pp.userapi.com/c837532/v837532981/2a0ea/MrIBtPd2aRc.jpg",
    "description": "description",
    "category": {
      "id": 1,
      "title": "TV"
    },
    "user": {
      "id": 1,
      "firstName": "Ivan",
      "secondName": "Ivanov",
      "email": "email@email.com",
      "password": "password",
      "status": true,
      "role": {
        "id": 1,
        "title": "user"
      }
    },
    "features": []
  },
  {
    "id": 2,
    "title": "title",
    "price": 100,
    "address": "address",
    "status": true,
    "createdDate": {
      "dayOfMonth": 5,
      "dayOfWeek": "THURSDAY",
      "dayOfYear": 309,
      "month": "NOVEMBER",
      "monthValue": 11,
      "year": 2015,
      "hour": 14,
      "minute": 29,
      "nano": 0,
      "second": 36,
      "chronology": {
        "id": "ISO",
        "calendarType": "iso8601"
      }
    },
    "photo": "photo",
    "description": "description",
    "category": {
      "id": 2,
      "title": "PC"
    },
    "user": {
      "id": 1,
      "firstName": "Ivan",
      "secondName": "Ivanov",
      "email": "email@email.com",
      "password": "password",
      "status": true,
      "role": {
        "id": 1,
        "title": "user"
      }
    },
    "features": []
  },
  {
    "id": 3,
    "title": "title",
    "price": 100,
    "address": "address",
    "status": true,
    "createdDate": {
      "dayOfMonth": 5,
      "dayOfWeek": "THURSDAY",
      "dayOfYear": 309,
      "month": "NOVEMBER",
      "monthValue": 11,
      "year": 2015,
      "hour": 14,
      "minute": 29,
      "nano": 0,
      "second": 36,
      "chronology": {
        "id": "ISO",
        "calendarType": "iso8601"
      }
    },
    "photo": "photo",
    "description": "description",
    "category": {
      "id": 2,
      "title": "PC"
    },
    "user": {
      "id": 1,
      "firstName": "Ivan",
      "secondName": "Ivanov",
      "email": "email@email.com",
      "password": "password",
      "status": true,
      "role": {
        "id": 1,
        "title": "user"
      }
    },
    "features": []
  },
  {
    "id": 4,
    "title": "title",
    "price": 100,
    "address": "address",
    "status": true,
    "createdDate": {
      "dayOfMonth": 5,
      "dayOfWeek": "THURSDAY",
      "dayOfYear": 309,
      "month": "NOVEMBER",
      "monthValue": 11,
      "year": 2015,
      "hour": 14,
      "minute": 29,
      "nano": 0,
      "second": 36,
      "chronology": {
        "id": "ISO",
        "calendarType": "iso8601"
      }
    },
    "photo": "photo",
    "description": "description",
    "category": {
      "id": 3,
      "title": "Mobile"
    },
    "user": {
      "id": 1,
      "firstName": "Ivan",
      "secondName": "Ivanov",
      "email": "email@email.com",
      "password": "password",
      "status": true,
      "role": {
        "id": 1,
        "title": "user"
      }
    },
    "features": []
  },
  {
    "id": 5,
    "title": "title",
    "price": 100,
    "address": "address",
    "status": false,
    "createdDate": {
      "dayOfMonth": 5,
      "dayOfWeek": "THURSDAY",
      "dayOfYear": 309,
      "month": "NOVEMBER",
      "monthValue": 11,
      "year": 2015,
      "hour": 14,
      "minute": 29,
      "nano": 0,
      "second": 36,
      "chronology": {
        "id": "ISO",
        "calendarType": "iso8601"
      }
    },
    "photo": "photo",
    "description": "description",
    "category": {
      "id": 4,
      "title": "Stuff"
    },
    "user": {
      "id": 1,
      "firstName": "Ivan",
      "secondName": "Ivanov",
      "email": "email@email.com",
      "password": "password",
      "status": true,
      "role": {
        "id": 1,
        "title": "user"
      }
    },
    "features": []
  },
  {
    "id": 6,
    "title": "title",
    "price": 100,
    "address": "address",
    "status": true,
    "createdDate": {
      "dayOfMonth": 5,
      "dayOfWeek": "THURSDAY",
      "dayOfYear": 309,
      "month": "NOVEMBER",
      "monthValue": 11,
      "year": 2015,
      "hour": 14,
      "minute": 29,
      "nano": 0,
      "second": 36,
      "chronology": {
        "id": "ISO",
        "calendarType": "iso8601"
      }
    },
    "photo": "photo",
    "description": "description",
    "category": {
      "id": 1,
      "title": "TV"
    },
    "user": {
      "id": 1,
      "firstName": "Ivan",
      "secondName": "Ivanov",
      "email": "email@email.com",
      "password": "password",
      "status": true,
      "role": {
        "id": 1,
        "title": "user"
      }
    },
    "features": []
  },
  {
    "id": 7,
    "title": "title",
    "price": 100,
    "address": "address",
    "status": true,
    "createdDate": {
      "dayOfMonth": 5,
      "dayOfWeek": "THURSDAY",
      "dayOfYear": 309,
      "month": "NOVEMBER",
      "monthValue": 11,
      "year": 2015,
      "hour": 14,
      "minute": 29,
      "nano": 0,
      "second": 36,
      "chronology": {
        "id": "ISO",
        "calendarType": "iso8601"
      }
    },
    "photo": "photo",
    "description": "description",
    "category": {
      "id": 1,
      "title": "TV"
    },
    "user": {
      "id": 1,
      "firstName": "Ivan",
      "secondName": "Ivanov",
      "email": "email@email.com",
      "password": "password",
      "status": true,
      "role": {
        "id": 1,
        "title": "user"
      }
    },
    "features": []
  },
  {
    "id": 8,
    "title": "title",
    "price": 100,
    "address": "address",
    "status": true,
    "createdDate": {
      "dayOfMonth": 5,
      "dayOfWeek": "THURSDAY",
      "dayOfYear": 309,
      "month": "NOVEMBER",
      "monthValue": 11,
      "year": 2015,
      "hour": 14,
      "minute": 29,
      "nano": 0,
      "second": 36,
      "chronology": {
        "id": "ISO",
        "calendarType": "iso8601"
      }
    },
    "photo": "https://pp.userapi.com/c629400/v629400313/2345/FM00SjzLOmg.jpg",
    "description": "description",
    "category": {
      "id": 1,
      "title": "TV"
    },
    "user": {
      "id": 1,
      "firstName": "Ivan",
      "secondName": "Ivanov",
      "email": "email@email.com",
      "password": "password",
      "status": true,
      "role": {
        "id": 1,
        "title": "user"
      }
    },
    "features": []
  },
  {
    "id": 9,
    "title": "title",
    "price": 100,
    "address": "address",
    "status": true,
    "createdDate": {
      "dayOfMonth": 5,
      "dayOfWeek": "THURSDAY",
      "dayOfYear": 309,
      "month": "NOVEMBER",
      "monthValue": 11,
      "year": 2015,
      "hour": 14,
      "minute": 29,
      "nano": 0,
      "second": 36,
      "chronology": {
        "id": "ISO",
        "calendarType": "iso8601"
      }
    },
    "photo": "photo",
    "description": "description",
    "category": {
      "id": 2,
      "title": "PC"
    },
    "user": {
      "id": 1,
      "firstName": "Ivan",
      "secondName": "Ivanov",
      "email": "email@email.com",
      "password": "password",
      "status": true,
      "role": {
        "id": 1,
        "title": "user"
      }
    },
    "features": []
  },
  {
    "id": 10,
    "title": "title",
    "price": 100,
    "address": "address",
    "status": true,
    "createdDate": {
      "dayOfMonth": 5,
      "dayOfWeek": "THURSDAY",
      "dayOfYear": 309,
      "month": "NOVEMBER",
      "monthValue": 11,
      "year": 2015,
      "hour": 14,
      "minute": 29,
      "nano": 0,
      "second": 36,
      "chronology": {
        "id": "ISO",
        "calendarType": "iso8601"
      }
    },
    "photo": "photo",
    "description": "description",
    "category": {
      "id": 2,
      "title": "PC"
    },
    "user": {
      "id": 1,
      "firstName": "Ivan",
      "secondName": "Ivanov",
      "email": "email@email.com",
      "password": "password",
      "status": true,
      "role": {
        "id": 1,
        "title": "user"
      }
    },
    "features": []
  }
]
